%YAML 1.1
%TAG !u! tag:unity3d.com,2011:
--- !u!114 &11400000
MonoBehaviour:
  m_ObjectHideFlags: 0
  m_CorrespondingSourceObject: {fileID: 0}
  m_PrefabInstance: {fileID: 0}
  m_PrefabAsset: {fileID: 0}
  m_GameObject: {fileID: 0}
  m_Enabled: 1
  m_EditorHideFlags: 0
  m_Script: {fileID: 11500000, guid: 8d89f4e584524155b231670463fa9a3d, type: 3}
  m_Name: ActiveEnemySpawnersSet
  m_EditorClassIdentifier: 
  desctiption: "\u0410\u043A\u0442\u0438\u0432\u043D\u044B\u0435 \u0441\u043F\u0430\u0432\u043D\u0435\u0440\u044B"
  ClearOnStart: 1
  MaxSize: 0
  Items: []
